Data Science for Economists
…
Looks better! 

---
# Accessing the actual info

We still don't have the table info. `html_table()` can help:

``` r
table_dfs <- raw_wiki |> html_elements("table.wikitable") |> 
  html_table()
table_dfs[[1]]
```

```
## # A tibble: 21 × 5
##     Time Athlete               Nationality    `Location of races`     Date      
##    <dbl> <chr>                 <chr>          <chr>                   <chr>     
##  1  10.8 Luther Cary           United States  Paris, France           July 4, 1…
##  2  10.8 Cecil Lee             United Kingdom Brussels, Belgium       September…
##  3  10.8 Étienne De Ré         Belgium        Brussels, Belgium       August 4,…
##  4  10.8 L. Atcherley          United Kingdom Frankfurt/Main, Germany April 13,…
##  5  10.8 Harry Beaton          United Kingdom Rotterdam, Netherlands  August 28…
##  6  10.8 Harald Anderson-Arbin Sweden         Helsingborg, Sweden     August 9,…
##  7  10.8 Isaac Westergren      Sweden         Gävle, Sweden           September…
##  8  10.8 Isaac Westergren      Sweden         Gävle, Sweden           September…
##  9  10.8 Frank Jarvis          United States  Paris, France           July 14, …
## 10  10.8 Walter Tewksbury      United States  Paris, France           July 14, …
## # ℹ 11 more rows
```
…
Let's get our data frames in working order here: 

``` r
table_dfs_int <- raw_wiki |> html_elements("table.wikitable") |> 
  html_table()

table_dfs <- lapply(table_dfs_int[c(1,3,4)], # drop unwanted tables
                    function(x) x |>
*                     clean_names() |> ## fix colnames, from the janitor package
                      mutate(date = mdy(date))) ## from lubridate
table_dfs[[1]]
```

```
## # A tibble: 21 × 5
##     time athlete               nationality    location_of_races       date      
##    <dbl> <chr>                 <chr>          <chr>                   <date>    
##  1  10.8 Luther Cary           United States  Paris, France           1891-07-04
##  2  10.8 Cecil Lee             United Kingdom Brussels, Belgium       1892-09-25
##  3  10.8 Étienne De Ré         Belgium        Brussels, Belgium       1893-08-04
##  4  10.8 L. Atcherley          United Kingdom Frankfurt/Main, Germany 1895-04-13
##  5  10.8 Harry Beaton          United Kingdom Rotterdam, Netherlands  1895-08-28
##  6  10.8 Harald Anderson-Arbin Sweden         Helsingborg, Sweden     1896-08-09
##  7  10.8 Isaac Westergren      Sweden         Gävle, Sweden           1898-09-11
##  8  10.8 Isaac Westergren      Sweden         Gävle, Sweden           1899-09-10
##  9  10.8 Frank Jarvis          United States  Paris, France           1900-07-14
## 10  10.8 Walter Tewksbury      United States  Paris, France           1900-07-14
## # ℹ 11 more rows
```
…
